[gd_scene load_steps=2 format=2]

[ext_resource path="res://core/audio/music.gd" type="Script" id=1]

[node name="Music" type="Node"]
pause_mode = 2
script = ExtResource( 1 )

[node name="AudioStreamPlayer" type="AudioStreamPlayer" parent="."]
bus = "Music"

[connection signal="finished" from="AudioStreamPlayer" to="." method="_on_finished"]
