[gd_scene load_steps=3 format=2]

[ext_resource path="res://core/input/dummy.gd" type="Script" id=1]

[sub_resource type="CapsuleShape" id=1]

[node name="Dummy" type="KinematicBody" groups=["Player"]]
collision_layer = 8
collision_mask = 63
script = ExtResource( 1 )

[node name="CollisionShape" type="CollisionShape" parent="."]
transform = Transform( 1, 0, 0, 0, -4.37114e-08, -1, 0, 1, -4.37114e-08, 0, 0, 0 )
shape = SubResource( 1 )
