[gd_scene load_steps=6 format=2]

[ext_resource path="res://core/input/garbaj.gd" type="Script" id=1]
[ext_resource path="res://assets/materials/colors/lightpink.tres" type="Material" id=2]

[sub_resource type="CapsuleMesh" id=1]
material = ExtResource( 2 )
radius = 0.3
mid_height = 0.8
radial_segments = 16
rings = 2

[sub_resource type="CapsuleShape" id=2]
height = 3.0

[sub_resource type="CylinderShape" id=3]

[node name="Player" type="KinematicBody" groups=["Player"]]
collision_layer = 8
collision_mask = 63
script = ExtResource( 1 )

[node name="Body" type="MeshInstance" parent="."]
transform = Transform( 1, 0, 0, 0, -1.62921e-07, -1, 0, 1, -1.62921e-07, 0, 0, 0 )
cast_shadow = 0
mesh = SubResource( 1 )
material/0 = null

[node name="CollisionShape" type="CollisionShape" parent="."]
transform = Transform( 1, 0, 0, 0, -1.62921e-07, -1, 0, 1, -1.62921e-07, 0, 0, 0 )
shape = SubResource( 2 )

[node name="Foot" type="CollisionShape" parent="."]
transform = Transform( 1, 0, 0, 0, 1, 0, 0, 0, 1, 0, -1.5, 0 )
shape = SubResource( 3 )

[node name="Head" type="Spatial" parent="."]
transform = Transform( 1, 0, 0, 0, 1, 0, 0, 0, 1, 0, 1.25, 0 )

[node name="Camera1st" type="Camera" parent="Head"]

[node name="GroundCheck" type="RayCast" parent="."]
transform = Transform( 1, 0, 0, 0, 1, 0, 0, 0, 1, 0, -2, 0 )
enabled = true
cast_to = Vector3( 0, -1.5, 0 )

[node name="Camera3rd" type="Camera" parent="."]
transform = Transform( 1, 0, 0, 0, 1, 0, 0, 0, 1, 0, 1.25, 0 )
