<?xml version="1.0" standalone="no"?>
<svg viewBox="0 0 140 140" xmlns="http://www.w3.org/2000/svg">
	<defs>
		<radialGradient id="radial-gradient">
			<stop offset="66%" style="stop-color:rgb(0,0,0); stop-opacity:0"/>
			<stop offset="99%" stop-color="#303e48"/>
		</radialGradient>
	</defs>
	<circle cx="70" cy="70" r="70" fill="url(#radial-gradient)" opacity="0.33" />
</svg>