<?xml version="1.0" standalone="no"?>
<svg viewBox="0 0 30 30" xmlns="http://www.w3.org/2000/svg">
	<defs>
		<radialGradient id="radial-gradient">
			<stop offset="90%" stop-color="green"/>
			<stop offset="100%" stop-color="white"/>
		</radialGradient>
	</defs>
	<circle cx="15" cy="15" r="15" fill="url(#radial-gradient)" opacity="0.7" />
</svg>