<?xml version="1.0" encoding="UTF-8" standalone="no"?>
<svg
   xmlns:dc="http://purl.org/dc/elements/1.1/"
   xmlns:cc="http://creativecommons.org/ns#"
   xmlns:rdf="http://www.w3.org/1999/02/22-rdf-syntax-ns#"
   xmlns:svg="http://www.w3.org/2000/svg"
   xmlns="http://www.w3.org/2000/svg"
   xmlns:sodipodi="http://sodipodi.sourceforge.net/DTD/sodipodi-0.dtd"
   xmlns:inkscape="http://www.inkscape.org/namespaces/inkscape"
   version="1.1"
   x="0"
   y="0"
   width="180"
   height="180"
   viewBox="0 0 180 180"
   id="svg454"
   sodipodi:docname="compass-superlite.svg"
   inkscape:version="0.92.4 (unknown)">
  <metadata
     id="metadata460">
    <rdf:RDF>
      <cc:Work
         rdf:about="">
        <dc:format>image/svg+xml</dc:format>
        <dc:type
           rdf:resource="http://purl.org/dc/dcmitype/StillImage" />
        <dc:title></dc:title>
      </cc:Work>
    </rdf:RDF>
  </metadata>
  <defs
     id="defs458" />
  <sodipodi:namedview
     pagecolor="#ffffff"
     bordercolor="#666666"
     borderopacity="1"
     objecttolerance="10"
     gridtolerance="10"
     guidetolerance="10"
     inkscape:pageopacity="0"
     inkscape:pageshadow="2"
     inkscape:window-width="1600"
     inkscape:window-height="811"
     id="namedview456"
     showgrid="false"
     inkscape:zoom="2.7079465"
     inkscape:cx="38.013132"
     inkscape:cy="98.418524"
     inkscape:window-x="0"
     inkscape:window-y="24"
     inkscape:window-maximized="1"
     inkscape:current-layer="text" />
  <style
     type="text/css"
     id="style2">
	.st1{fill:none;stroke:#000;stroke-width:2;stroke-linecap:round;}
	.st2{fill:none;stroke:#808080;stroke-width:2;stroke-linecap:round;}
	.st3{font-family:Liberation Sans,Arial;}
	.st4{font-size:48px;}
	.st5{font-size:12px;}
</style>
  <g
     id="compass"
     transform="matrix(1.0659562,0,0,1.0659562,-5.9387225,-339.57557)">
    <g
       id="minutes"
       transform="matrix(0.37224498,0,0,0.37224498,-3.0208878,311.16892)">
      <line
         class="st1"
         x1="250"
         y1="21.9"
         x2="250"
         y2="61.900002"
         id="line4"
         style="fill:none;stroke:#000000;stroke-width:2;stroke-linecap:round" />
      <line
         class="st1"
         x1="211"
         y1="25.299999"
         x2="217.89999"
         y2="64.699997"
         id="line6"
         style="fill:none;stroke:#000000;stroke-width:2;stroke-linecap:round" />
      <line
         class="st1"
         x1="173.2"
         y1="35.400002"
         x2="186.89999"
         y2="73"
         id="line8"
         style="fill:none;stroke:#000000;stroke-width:2;stroke-linecap:round" />
      <line
         class="st1"
         x1="137.7"
         y1="52"
         x2="157.7"
         y2="86.599998"
         id="line10"
         style="fill:none;stroke:#000000;stroke-width:2;stroke-linecap:round" />
      <line
         class="st1"
         x1="105.6"
         y1="74.400002"
         x2="131.3"
         y2="105.1"
         id="line12"
         style="fill:none;stroke:#000000;stroke-width:2;stroke-linecap:round" />
      <line
         class="st1"
         x1="77.900002"
         y1="102.1"
         x2="108.6"
         y2="127.8"
         id="line14"
         style="fill:none;stroke:#000000;stroke-width:2;stroke-linecap:round" />
      <line
         class="st1"
         x1="55.5"
         y1="134.2"
         x2="90.099998"
         y2="154.2"
         id="line16"
         style="fill:none;stroke:#000000;stroke-width:2;stroke-linecap:round" />
      <line
         class="st1"
         x1="38.900002"
         y1="169.7"
         x2="76.5"
         y2="183.39999"
         id="line18"
         style="fill:none;stroke:#000000;stroke-width:2;stroke-linecap:round" />
      <line
         class="st1"
         x1="28.799999"
         y1="207.5"
         x2="68.199997"
         y2="214.39999"
         id="line20"
         style="fill:none;stroke:#000000;stroke-width:2;stroke-linecap:round" />
      <line
         class="st1"
         x1="25.4"
         y1="246.5"
         x2="65.400002"
         y2="246.5"
         id="line22"
         style="fill:none;stroke:#000000;stroke-width:2;stroke-linecap:round" />
      <line
         class="st1"
         x1="28.799999"
         y1="285.5"
         x2="68.199997"
         y2="278.60001"
         id="line24"
         style="fill:none;stroke:#000000;stroke-width:2;stroke-linecap:round" />
      <line
         class="st1"
         x1="38.900002"
         y1="323.29999"
         x2="76.5"
         y2="309.60001"
         id="line26"
         style="fill:none;stroke:#000000;stroke-width:2;stroke-linecap:round" />
      <line
         class="st1"
         x1="55.5"
         y1="358.79999"
         x2="90.099998"
         y2="338.79999"
         id="line28"
         style="fill:none;stroke:#000000;stroke-width:2;stroke-linecap:round" />
      <line
         class="st1"
         x1="77.900002"
         y1="390.89999"
         x2="108.6"
         y2="365.20001"
         id="line30"
         style="fill:none;stroke:#000000;stroke-width:2;stroke-linecap:round" />
      <line
         class="st1"
         x1="105.6"
         y1="418.60001"
         x2="131.3"
         y2="387.89999"
         id="line32"
         style="fill:none;stroke:#000000;stroke-width:2;stroke-linecap:round" />
      <line
         class="st1"
         x1="137.7"
         y1="441"
         x2="157.7"
         y2="406.39999"
         id="line34"
         style="fill:none;stroke:#000000;stroke-width:2;stroke-linecap:round" />
      <line
         class="st1"
         x1="173.2"
         y1="457.60001"
         x2="186.89999"
         y2="420"
         id="line36"
         style="fill:none;stroke:#000000;stroke-width:2;stroke-linecap:round" />
      <line
         class="st1"
         x1="211"
         y1="467.70001"
         x2="217.89999"
         y2="428.29999"
         id="line38"
         style="fill:none;stroke:#000000;stroke-width:2;stroke-linecap:round" />
      <line
         class="st1"
         x1="250"
         y1="471.10001"
         x2="250"
         y2="431.10001"
         id="line40"
         style="fill:none;stroke:#000000;stroke-width:2;stroke-linecap:round" />
      <line
         class="st1"
         x1="289"
         y1="467.70001"
         x2="282.10001"
         y2="428.29999"
         id="line42"
         style="fill:none;stroke:#000000;stroke-width:2;stroke-linecap:round" />
      <line
         class="st1"
         x1="326.79999"
         y1="457.60001"
         x2="313.10001"
         y2="420"
         id="line44"
         style="fill:none;stroke:#000000;stroke-width:2;stroke-linecap:round" />
      <line
         class="st1"
         x1="362.29999"
         y1="441"
         x2="342.29999"
         y2="406.39999"
         id="line46"
         style="fill:none;stroke:#000000;stroke-width:2;stroke-linecap:round" />
      <line
         class="st1"
         x1="394.39999"
         y1="418.60001"
         x2="368.70001"
         y2="387.89999"
         id="line48"
         style="fill:none;stroke:#000000;stroke-width:2;stroke-linecap:round" />
      <line
         class="st1"
         x1="422.10001"
         y1="390.89999"
         x2="391.39999"
         y2="365.20001"
         id="line50"
         style="fill:none;stroke:#000000;stroke-width:2;stroke-linecap:round" />
      <line
         class="st1"
         x1="444.5"
         y1="358.79999"
         x2="409.89999"
         y2="338.79999"
         id="line52"
         style="fill:none;stroke:#000000;stroke-width:2;stroke-linecap:round" />
      <line
         class="st1"
         x1="461.10001"
         y1="323.29999"
         x2="423.5"
         y2="309.60001"
         id="line54"
         style="fill:none;stroke:#000000;stroke-width:2;stroke-linecap:round" />
      <line
         class="st1"
         x1="471.20001"
         y1="285.5"
         x2="431.79999"
         y2="278.60001"
         id="line56"
         style="fill:none;stroke:#000000;stroke-width:2;stroke-linecap:round" />
      <line
         class="st1"
         x1="474.60001"
         y1="246.5"
         x2="434.60001"
         y2="246.5"
         id="line58"
         style="fill:none;stroke:#000000;stroke-width:2;stroke-linecap:round" />
      <line
         class="st1"
         x1="471.20001"
         y1="207.5"
         x2="431.79999"
         y2="214.39999"
         id="line60"
         style="fill:none;stroke:#000000;stroke-width:2;stroke-linecap:round" />
      <line
         class="st1"
         x1="461.10001"
         y1="169.7"
         x2="423.5"
         y2="183.39999"
         id="line62"
         style="fill:none;stroke:#000000;stroke-width:2;stroke-linecap:round" />
      <line
         class="st1"
         x1="444.5"
         y1="134.2"
         x2="409.89999"
         y2="154.2"
         id="line64"
         style="fill:none;stroke:#000000;stroke-width:2;stroke-linecap:round" />
      <line
         class="st1"
         x1="422.10001"
         y1="102.1"
         x2="391.39999"
         y2="127.8"
         id="line66"
         style="fill:none;stroke:#000000;stroke-width:2;stroke-linecap:round" />
      <line
         class="st1"
         x1="394.39999"
         y1="74.400002"
         x2="368.70001"
         y2="105.1"
         id="line68"
         style="fill:none;stroke:#000000;stroke-width:2;stroke-linecap:round" />
      <line
         class="st1"
         x1="362.29999"
         y1="52"
         x2="342.29999"
         y2="86.599998"
         id="line70"
         style="fill:none;stroke:#000000;stroke-width:2;stroke-linecap:round" />
      <line
         class="st1"
         x1="326.79999"
         y1="35.400002"
         x2="313.10001"
         y2="73"
         id="line72"
         style="fill:none;stroke:#000000;stroke-width:2;stroke-linecap:round" />
      <line
         class="st1"
         x1="289"
         y1="25.299999"
         x2="282.10001"
         y2="64.699997"
         id="line74"
         style="fill:none;stroke:#000000;stroke-width:2;stroke-linecap:round" />
    </g>
  </g>
  <g
     id="text"
     transform="matrix(0.39679686,0,0,0.39679686,-9.1588567,-7.8831174)">
    <text
       transform="rotate(90,78.41845,302.76615)"
       class="st3 st4"
       id="text371"
       style="font-size:48px;font-family:'Liberation Sans', Arial;fill:#180000;fill-opacity:1;">W</text>
    <text
       transform="translate(235.1057,415.1405)"
       class="st3 st4"
       id="text373"
       style="font-size:48px;font-family:'Liberation Sans', Arial;fill:#090000;fill-opacity:1;">S</text>
    <text
       transform="translate(233.7814,109.3156)"
       class="st3 st4"
       id="text375"
       style="font-size:48px;font-family:'Liberation Sans', Arial;fill:#090000;fill-opacity:1;">N</text>
    <g
       id="Degrees" />
    <g
       id="English"
       style="fill:#000000;fill-opacity:1">
      <text
         transform="rotate(90,-74.3164,156.6758)"
         class="st3 st4"
         id="text450"
         style="font-size:48px;font-family:'Liberation Sans', Arial;fill:#000000;fill-opacity:1">E</text>
    </g>
  </g>
</svg>
